PBL 02/simulation/qsim/V2.msim.vcd
$comment
	File created using the following command:
		vcd file V2.msim.vcd -direction
$end
$date
	Wed May  3 16:31:56 2023
$end
$version
	ModelSim Version 2020.1
$end
$timescale
	1ps
$end

$scope module Varredura_Matriz_vlg_vec_tst $end
$var reg 2 ! chaves [1:0] $end
$var reg 1 " clock_50MHz $end
$var wire 1 # colunas [4] $end
$var wire 1 $ colunas [3] $end
$var wire 1 % colunas [2] $end
$var wire 1 & colunas [1] $end
$var wire 1 ' colunas [0] $end
$var wire 1 ( linhas [6] $end
$var wire 1 ) linhas [5] $end
$var wire 1 * linhas [4] $end
$var wire 1 + linhas [3] $end
$var wire 1 , linhas [2] $end
$var wire 1 - linhas [1] $end
$var wire 1 . linhas [0] $end

$scope module i1 $end
$var wire 1 / gnd $end
$var wire 1 0 vcc $end
$var wire 1 1 unknown $end
$var tri1 1 2 devclrn $end
$var tri1 1 3 devpor $end
$var tri1 1 4 devoe $end
$var wire 1 5 clock_50MHz~combout $end
$var wire 1 6 comb_3|comb_3|q~regout $end
$var wire 1 7 comb_3|comb_4|q~regout $end
$var wire 1 8 comb_3|comb_6|q~regout $end
$var wire 1 9 comb_3|comb_8|q~regout $end
$var wire 1 : comb_3|comb_10|q~regout $end
$var wire 1 ; comb_4|comb_7|q~regout $end
$var wire 1 < comb_4|comb_8|q~regout $end
$var wire 1 = comb_4|comb_10|q~regout $end
$var wire 1 > comb_16|WideOr1~0_combout $end
$var wire 1 ? linhas~8_combout $end
$var wire 1 @ Equal0~0_combout $end
$var wire 1 A linhas~9_combout $end
$var wire 1 B linhas~10_combout $end
$var wire 1 C comb_16|WideOr0~2_combout $end
$var wire 1 D linhas~13_combout $end
$var wire 1 E linhas~14_combout $end
$var wire 1 F linhas~11_combout $end
$var wire 1 G linhas~12_combout $end
$var wire 1 H comb_3|comb_12|q~regout $end
$var wire 1 I comb_3|comb_14|q~regout $end
$var wire 1 J comb_3|comb_16|q~regout $end
$var wire 1 K comb_3|comb_18|q~regout $end
$var wire 1 L comb_3|comb_20|q~regout $end
$var wire 1 M comb_3|comb_22|q~regout $end
$var wire 1 N comb_3|comb_24|q~regout $end
$var wire 1 O comb_3|comb_26|q~regout $end
$var wire 1 P comb_3|comb_28|q~regout $end
$var wire 1 Q comb_3|comb_30|q~regout $end
$var wire 1 R comb_3|comb_32|q~regout $end
$var wire 1 S comb_3|comb_34|q~regout $end
$var wire 1 T comb_3|comb_36|q~regout $end
$var wire 1 U comb_3|comb_38|q~regout $end
$var wire 1 V comb_3|comb_40|q~regout $end
$var wire 1 W comb_3|comb_42|q~regout $end
$var wire 1 X comb_3|comb_44|q~regout $end
$var wire 1 Y comb_3|comb_46|q~regout $end
$var wire 1 Z comb_3|comb_48|q~regout $end
$var wire 1 [ comb_3|comb_50|q~regout $end
$var wire 1 \ comb_15|clockf~combout $end
$var wire 1 ] comb_15|comb_7|q~regout $end
$var wire 1 ^ comb_15|comb_8|q~regout $end
$var wire 1 _ comb_16|WideOr0~5_combout $end
$var wire 1 ` comb_16|WideOr0~3_combout $end
$var wire 1 a comb_15|comb_10|q~regout $end
$var wire 1 b comb_16|WideOr0~8_combout $end
$var wire 1 c comb_15|contador[1]~1_combout $end
$var wire 1 d comb_15|contador[0]~0_combout $end
$var wire 1 e comb_16|WideOr0~4_combout $end
$var wire 1 f comb_16|WideOr0~6_combout $end
$var wire 1 g comb_16|WideOr0~7_combout $end
$var wire 1 h comb_16|WideOr1~1_combout $end
$var wire 1 i comb_16|WideOr1~2_combout $end
$var wire 1 j comb_16|WideOr3~3_combout $end
$var wire 1 k comb_16|WideOr3~2_combout $end
$var wire 1 l comb_16|WideOr3~4_combout $end
$var wire 1 m comb_16|WideOr3~5_combout $end
$var wire 1 n comb_16|WideOr4~3_combout $end
$var wire 1 o comb_16|WideOr4~4_combout $end
$var wire 1 p comb_16|WideOr4~2_combout $end
$var wire 1 q comb_16|WideOr4~5_combout $end
$var wire 1 r comb_3|ands [23] $end
$var wire 1 s comb_3|ands [22] $end
$var wire 1 t comb_3|ands [21] $end
$var wire 1 u comb_3|ands [20] $end
$var wire 1 v comb_3|ands [19] $end
$var wire 1 w comb_3|ands [18] $end
$var wire 1 x comb_3|ands [17] $end
$var wire 1 y comb_3|ands [16] $end
$var wire 1 z comb_3|ands [15] $end
$var wire 1 { comb_3|ands [14] $end
$var wire 1 | comb_3|ands [13] $end
$var wire 1 } comb_3|ands [12] $end
$var wire 1 ~ comb_3|ands [11] $end
$var wire 1 !! comb_3|ands [10] $end
$var wire 1 "! comb_3|ands [9] $end
$var wire 1 #! comb_3|ands [8] $end
$var wire 1 $! comb_3|ands [7] $end
$var wire 1 %! comb_3|ands [6] $end
$var wire 1 &! comb_3|ands [5] $end
$var wire 1 '! comb_3|ands [4] $end
$var wire 1 (! comb_3|ands [3] $end
$var wire 1 )! comb_3|ands [2] $end
$var wire 1 *! comb_3|ands [1] $end
$var wire 1 +! comb_3|ands [0] $end
$var wire 1 ,! chaves~combout [1] $end
$var wire 1 -! chaves~combout [0] $end
$upscope $end
$upscope $end
$enddefinitions $end
#0
$dumpvars
b0 !
0"
0'
0&
0%
0$
0#
1.
1-
1,
1+
1*
1)
1(
0/
10
x1
12
13
14
05
06
07
08
09
0:
0;
0<
0=
0>
1?
1@
1A
1B
0C
1D
1E
1F
1G
0H
0I
0J
0K
0L
0M
0N
0O
0P
0Q
0R
0S
0T
0U
0V
0W
0X
0Y
0Z
0[
1\
0]
0^
0_
0`
0a
0b
0c
0d
0e
0f
0g
0h
0i
0j
0k
0l
0m
0n
0o
0p
0q
z+!
z*!
0)!
z(!
z'!
0&!
z%!
z$!
0#!
z"!
z!!
0~
z}
z|
0{
zz
zy
0x
zw
zv
0u
zt
zs
zr
0-!
0,!
$end
#1250
1"
15
16
#2500
0"
05
#3750
1"
15
17
06
#5000
0"
05
#6250
1"
15
16
#7500
0"
05
#8750
1"
15
18
07
06
#10000
0"
05
#11250
1"
15
16
#12500
0"
05
#13750
1"
15
17
06
#15000
0"
05
#16250
1"
15
16
#17500
0"
05
#18750
1"
15
19
08
07
06
#20000
0"
05
#21250
1"
15
16
#22500
0"
05
#23750
1"
15
17
06
#25000
0"
05
#26250
1"
15
16
#27500
0"
05
#28750
1"
15
18
07
06
#30000
0"
05
#31250
1"
15
16
#32500
0"
05
#33750
1"
15
17
06
#35000
0"
05
#36250
1"
15
16
1)!
#37500
0"
05
#38750
1"
15
1:
09
08
07
06
0)!
#40000
0"
05
#41250
1"
15
16
#42500
0"
05
#43750
1"
15
17
06
#45000
0"
05
#46250
1"
15
16
#47500
0"
05
#48750
1"
15
18
07
06
#50000
0"
05
#51250
1"
15
16
#52500
0"
05
#53750
1"
15
17
06
#55000
0"
05
#56250
1"
15
16
#57500
0"
05
#58750
1"
15
19
08
07
06
#60000
0"
05
#61250
1"
15
16
#62500
0"
05
#63750
1"
15
17
06
#65000
0"
05
#66250
1"
15
16
#67500
0"
05
#68750
1"
15
18
07
06
#70000
0"
05
#71250
1"
15
16
#72500
0"
05
#73750
1"
15
17
06
#75000
0"
05
#76250
1"
15
16
1)!
#77500
0"
05
#78750
1"
15
1H
0:
09
08
07
06
0)!
1;
1p
#80000
0"
05
#81250
1"
15
16
#82500
0"
05
#83750
1"
15
17
06
#85000
0"
05
#86250
1"
15
16
#87500
0"
05
#88750
1"
15
18
07
06
#90000
0"
05
#91250
1"
15
16
#92500
0"
05
#93750
1"
15
17
06
#95000
0"
05
#96250
1"
15
16
#97500
0"
05
#98750
1"
15
19
08
07
06
#100000
0"
05
#101250
1"
15
16
#102500
0"
05
#103750
1"
15
17
06
#105000
0"
05
#106250
1"
15
16
#107500
0"
05
#108750
1"
15
18
07
06
#110000
0"
05
#111250
1"
15
16
#112500
0"
05
#113750
1"
15
17
06
#115000
0"
05
#116250
1"
15
16
1)!
#117500
0"
05
#118750
1"
15
1:
09
08
07
06
0)!
#120000
0"
05
#121250
1"
15
16
#122500
0"
05
#123750
1"
15
17
06
#125000
0"
05
#126250
1"
15
16
#127500
0"
05
#128750
1"
15
18
07
06
#130000
0"
05
#131250
1"
15
16
#132500
0"
05
#133750
1"
15
17
06
#135000
0"
05
#136250
1"
15
16
#137500
0"
05
#138750
1"
15
19
08
07
06
#140000
0"
05
#141250
1"
15
16
#142500
0"
05
#143750
1"
15
17
06
#145000
0"
05
#146250
1"
15
16
#147500
0"
05
#148750
1"
15
18
07
06
#150000
0"
05
#151250
1"
15
16
#152500
0"
05
#153750
1"
15
17
06
#155000
0"
05
#156250
1"
15
16
1)!
#157500
0"
05
#158750
1"
15
1I
0H
0:
09
08
07
06
0)!
1<
0;
1k
1`
0p
1l
1p
1b
#160000
0"
05
#161250
1"
15
16
#162500
0"
05
#163750
1"
15
17
06
#165000
0"
05
#166250
1"
15
16
#167500
0"
05
#168750
1"
15
18
07
06
#170000
0"
05
#171250
1"
15
16
#172500
0"
05
#173750
1"
15
17
06
#175000
0"
05
#176250
1"
15
16
#177500
0"
05
#178750
1"
15
19
08
07
06
#180000
0"
05
#181250
1"
15
16
#182500
0"
05
#183750
1"
15
17
06
#185000
0"
05
#186250
1"
15
16
#187500
0"
05
#188750
1"
15
18
07
06
#190000
0"
05
#191250
1"
15
16
#192500
0"
05
#193750
1"
15
17
06
#195000
0"
05
#196250
1"
15
16
1)!
#197500
0"
05
#198750
1"
15
1:
09
08
07
06
0)!
#200000
0"
05
#201250
1"
15
16
#202500
0"
05
#203750
1"
15
17
06
#205000
0"
05
#206250
1"
15
16
#207500
0"
05
#208750
1"
15
18
07
06
#210000
0"
05
#211250
1"
15
16
#212500
0"
05
#213750
1"
15
17
06
#215000
0"
05
#216250
1"
15
16
#217500
0"
05
#218750
1"
15
19
08
07
06
#220000
0"
05
#221250
1"
15
16
#222500
0"
05
#223750
1"
15
17
06
#225000
0"
05
#226250
1"
15
16
#227500
0"
05
#228750
1"
15
18
07
06
#230000
0"
05
#231250
1"
15
16
#232500
0"
05
#233750
1"
15
17
06
#235000
0"
05
#236250
1"
15
16
1)!
#237500
0"
05
#238750
1"
15
1H
0:
09
08
07
06
0)!
1;
1o
#240000
0"
05
#241250
1"
15
16
#242500
0"
05
#243750
1"
15
17
06
#245000
0"
05
#246250
1"
15
16
#247500
0"
05
#248750
1"
15
18
07
06
#250000
0"
05
#251250
1"
15
16
#252500
0"
05
#253750
1"
15
17
06
#255000
0"
05
#256250
1"
15
16
#257500
0"
05
#258750
1"
15
19
08
07
06
#260000
0"
05
#261250
1"
15
16
#262500
0"
05
#263750
1"
15
17
06
#265000
0"
05
#266250
1"
15
16
#267500
0"
05
#268750
1"
15
18
07
06
#270000
0"
05
#271250
1"
15
16
#272500
0"
05
#273750
1"
15
17
06
#275000
0"
05
#276250
1"
15
16
1)!
#277500
0"
05
#278750
1"
15
1:
09
08
07
06
1&!
0)!
0&!
#280000
0"
05
#281250
1"
15
16
#282500
0"
05
#283750
1"
15
17
06
#285000
0"
05
#286250
1"
15
16
#287500
0"
05
#288750
1"
15
18
07
06
#290000
0"
05
#291250
1"
15
16
#292500
0"
05
#293750
1"
15
17
06
#295000
0"
05
#296250
1"
15
16
#297500
0"
05
#298750
1"
15
19
08
07
06
#300000
0"
05
#301250
1"
15
16
#302500
0"
05
#303750
1"
15
17
06
#305000
0"
05
#306250
1"
15
16
#307500
0"
05
#308750
1"
15
18
07
06
#310000
0"
05
#311250
1"
15
16
#312500
0"
05
#313750
1"
15
17
06
#315000
0"
05
#316250
1"
15
16
1)!
1&!
#317500
0"
05
#318750
1"
15
1J
0I
0H
0:
09
08
07
06
0&!
0)!
1=
0<
0;
1n
1h
1_
1C
0o
0`
0p
0b
#320000
0"
05
#321250
1"
15
16
#322500
0"
05
#323750
1"
15
17
06
#325000
0"
05
#326250
1"
15
16
#327500
0"
05
#328750
1"
15
18
07
06
#330000
0"
05
#331250
1"
15
16
#332500
0"
05
#333750
1"
15
17
06
#335000
0"
05
#336250
1"
15
16
#337500
0"
05
#338750
1"
15
19
08
07
06
#340000
0"
05
#341250
1"
15
16
#342500
0"
05
#343750
1"
15
17
06
#345000
0"
05
#346250
1"
15
16
#347500
0"
05
#348750
1"
15
18
07
06
#350000
0"
05
#351250
1"
15
16
#352500
0"
05
#353750
1"
15
17
06
#355000
0"
05
#356250
1"
15
16
1)!
#357500
0"
05
#358750
1"
15
1:
09
08
07
06
0)!
#360000
0"
05
#361250
1"
15
16
#362500
0"
05
#363750
1"
15
17
06
#365000
0"
05
#366250
1"
15
16
#367500
0"
05
#368750
1"
15
18
07
06
#370000
0"
05
#371250
1"
15
16
#372500
0"
05
#373750
1"
15
17
06
#375000
0"
05
#376250
1"
15
16
#377500
0"
05
#378750
1"
15
19
08
07
06
#380000
0"
05
#381250
1"
15
16
#382500
0"
05
#383750
1"
15
17
06
#385000
0"
05
#386250
1"
15
16
#387500
0"
05
#388750
1"
15
18
07
06
#390000
0"
05
#391250
1"
15
16
#392500
0"
05
#393750
1"
15
17
06
#395000
0"
05
#396250
1"
15
16
1)!
#397500
0"
05
#398750
1"
15
1H
0:
09
08
07
06
0)!
1;
1p
#400000
0"
05
#401250
1"
15
16
#402500
0"
05
#403750
1"
15
17
06
#405000
0"
05
#406250
1"
15
16
#407500
0"
05
#408750
1"
15
18
07
06
#410000
0"
05
#411250
1"
15
16
#412500
0"
05
#413750
1"
15
17
06
#415000
0"
05
#416250
1"
15
16
#417500
0"
05
#418750
1"
15
19
08
07
06
#420000
0"
05
#421250
1"
15
16
#422500
0"
05
#423750
1"
15
17
06
#425000
0"
05
#426250
1"
15
16
#427500
0"
05
#428750
1"
15
18
07
06
#430000
0"
05
#431250
1"
15
16
#432500
0"
05
#433750
1"
15
17
06
#435000
0"
05
#436250
1"
15
16
1)!
#437500
0"
05
#438750
1"
15
1:
09
08
07
06
0)!
#440000
0"
05
#441250
1"
15
16
#442500
0"
05
#443750
1"
15
17
06
#445000
0"
05
#446250
1"
15
16
#447500
0"
05
#448750
1"
15
18
07
06
#450000
0"
05
#451250
1"
15
16
#452500
0"
05
#453750
1"
15
17
06
#455000
0"
05
#456250
1"
15
16
#457500
0"
05
#458750
1"
15
19
08
07
06
#460000
0"
05
#461250
1"
15
16
#462500
0"
05
#463750
1"
15
17
06
#465000
0"
05
#466250
1"
15
16
#467500
0"
05
#468750
1"
15
18
07
06
#470000
0"
05
#471250
1"
15
16
#472500
0"
05
#473750
1"
15
17
06
#475000
0"
05
#476250
1"
15
16
1)!
#477500
0"
05
#478750
1"
15
1I
0H
0:
09
08
07
06
0)!
1<
0;
0k
1j
1`
0C
0p
1p
#480000
0"
05
#481250
1"
15
16
#482500
0"
05
#483750
1"
15
17
06
#485000
0"
05
#486250
1"
15
16
#487500
0"
05
#488750
1"
15
18
07
06
#490000
0"
05
#491250
1"
15
16
#492500
0"
05
#493750
1"
15
17
06
#495000
0"
05
#496250
1"
15
16
#497500
0"
05
#498750
1"
15
19
08
07
06
#500000
0"
05
#501250
1"
15
16
#502500
0"
05
#503750
1"
15
17
06
#505000
0"
05
#506250
1"
15
16
#507500
0"
05
#508750
1"
15
18
07
06
#510000
0"
05
#511250
1"
15
16
#512500
0"
05
#513750
1"
15
17
06
#515000
0"
05
#516250
1"
15
16
1)!
#517500
0"
05
#518750
1"
15
1:
09
08
07
06
0)!
#520000
0"
05
#521250
1"
15
16
#522500
0"
05
#523750
1"
15
17
06
#525000
0"
05
#526250
1"
15
16
#527500
0"
05
#528750
1"
15
18
07
06
#530000
0"
05
#531250
1"
15
16
#532500
0"
05
#533750
1"
15
17
06
#535000
0"
05
#536250
1"
15
16
#537500
0"
05
#538750
1"
15
19
08
07
06
#540000
0"
05
#541250
1"
15
16
#542500
0"
05
#543750
1"
15
17
06
#545000
0"
05
#546250
1"
15
16
#547500
0"
05
#548750
1"
15
18
07
06
#550000
0"
05
#551250
1"
15
16
#552500
0"
05
#553750
1"
15
17
06
#555000
0"
05
#556250
1"
15
16
1)!
#557500
0"
05
#558750
1"
15
1H
0:
09
08
07
06
0)!
1;
1o
#560000
0"
05
#561250
1"
15
16
#562500
0"
05
#563750
1"
15
17
06
#565000
0"
05
#566250
1"
15
16
#567500
0"
05
#568750
1"
15
18
07
06
#570000
0"
05
#571250
1"
15
16
#572500
0"
05
#573750
1"
15
17
06
#575000
0"
05
#576250
1"
15
16
#577500
0"
05
#578750
1"
15
19
08
07
06
#580000
0"
05
#581250
1"
15
16
#582500
0"
05
#583750
1"
15
17
06
#585000
0"
05
#586250
1"
15
16
#587500
0"
05
#588750
1"
15
18
07
06
#590000
0"
05
#591250
1"
15
16
#592500
0"
05
#593750
1"
15
17
06
#595000
0"
05
#596250
1"
15
16
1)!
#597500
0"
05
#598750
1"
15
1:
09
08
07
06
1&!
0)!
0&!
#600000
0"
05
#601250
1"
15
16
#602500
0"
05
#603750
1"
15
17
06
#605000
0"
05
#606250
1"
15
16
#607500
0"
05
#608750
1"
15
18
07
06
#610000
0"
05
#611250
1"
15
16
#612500
0"
05
#613750
1"
15
17
06
#615000
0"
05
#616250
1"
15
16
#617500
0"
05
#618750
1"
15
19
08
07
06
#620000
0"
05
#621250
1"
15
16
#622500
0"
05
#623750
1"
15
17
06
#625000
0"
05
#626250
1"
15
16
#627500
0"
05
#628750
1"
15
18
07
06
#630000
0"
05
#631250
1"
15
16
#632500
0"
05
#633750
1"
15
17
06
#635000
0"
05
#636250
1"
15
16
1)!
1&!
#637500
0"
05
#638750
1"
15
1K
0J
0I
0H
0:
09
08
07
06
0&!
0)!
0=
0<
0;
0n
0j
0h
0_
0o
0`
0l
0p
#640000
0"
05
#641250
1"
15
16
#642500
0"
05
#643750
1"
15
17
06
#645000
0"
05
#646250
1"
15
16
#647500
0"
05
#648750
1"
15
18
07
06
#650000
0"
05
#651250
1"
15
16
#652500
0"
05
#653750
1"
15
17
06
#655000
0"
05
#656250
1"
15
16
#657500
0"
05
#658750
1"
15
19
08
07
06
#660000
0"
05
#661250
1"
15
16
#662500
0"
05
#663750
1"
15
17
06
#665000
0"
05
#666250
1"
15
16
#667500
0"
05
#668750
1"
15
18
07
06
#670000
0"
05
#671250
1"
15
16
#672500
0"
05
#673750
1"
15
17
06
#675000
0"
05
#676250
1"
15
16
1)!
#677500
0"
05
#678750
1"
15
1:
09
08
07
06
0)!
#680000
0"
05
#681250
1"
15
16
#682500
0"
05
#683750
1"
15
17
06
#685000
0"
05
#686250
1"
15
16
#687500
0"
05
#688750
1"
15
18
07
06
#690000
0"
05
#691250
1"
15
16
#692500
0"
05
#693750
1"
15
17
06
#695000
0"
05
#696250
1"
15
16
#697500
0"
05
#698750
1"
15
19
08
07
06
#700000
0"
05
#701250
1"
15
16
#702500
0"
05
#703750
1"
15
17
06
#705000
0"
05
#706250
1"
15
16
#707500
0"
05
#708750
1"
15
18
07
06
#710000
0"
05
#711250
1"
15
16
#712500
0"
05
#713750
1"
15
17
06
#715000
0"
05
#716250
1"
15
16
1)!
#717500
0"
05
#718750
1"
15
1H
0:
09
08
07
06
0)!
1;
1p
#720000
0"
05
#721250
1"
15
16
#722500
0"
05
#723750
1"
15
17
06
#725000
0"
05
#726250
1"
15
16
#727500
0"
05
#728750
1"
15
18
07
06
#730000
0"
05
#731250
1"
15
16
#732500
0"
05
#733750
1"
15
17
06
#735000
0"
05
#736250
1"
15
16
#737500
0"
05
#738750
1"
15
19
08
07
06
#740000
0"
05
#741250
1"
15
16
#742500
0"
05
#743750
1"
15
17
06
#745000
0"
05
#746250
1"
15
16
#747500
0"
05
#748750
1"
15
18
07
06
#750000
0"
05
#751250
1"
15
16
#752500
0"
05
#753750
1"
15
17
06
#755000
0"
05
#756250
1"
15
16
1)!
#757500
0"
05
#758750
1"
15
1:
09
08
07
06
0)!
#760000
0"
05
#761250
1"
15
16
#762500
0"
05
#763750
1"
15
17
06
#765000
0"
05
#766250
1"
15
16
#767500
0"
05
#768750
1"
15
18
07
06
#770000
0"
05
#771250
1"
15
16
#772500
0"
05
#773750
1"
15
17
06
#775000
0"
05
#776250
1"
15
16
#777500
0"
05
#778750
1"
15
19
08
07
06
#780000
0"
05
#781250
1"
15
16
#782500
0"
05
#783750
1"
15
17
06
#785000
0"
05
#786250
1"
15
16
#787500
0"
05
#788750
1"
15
18
07
06
#790000
0"
05
#791250
1"
15
16
#792500
0"
05
#793750
1"
15
17
06
#795000
0"
05
#796250
1"
15
16
1)!
#797500
0"
05
#798750
1"
15
1I
0H
0:
09
08
07
06
0)!
1<
0;
1k
1`
0p
1l
1p
1b
#800000
0"
05
#801250
1"
15
16
#802500
0"
05
#803750
1"
15
17
06
#805000
0"
05
#806250
1"
15
16
#807500
0"
05
#808750
1"
15
18
07
06
#810000
0"
05
#811250
1"
15
16
#812500
0"
05
#813750
1"
15
17
06
#815000
0"
05
#816250
1"
15
16
#817500
0"
05
#818750
1"
15
19
08
07
06
#820000
0"
05
#821250
1"
15
16
#822500
0"
05
#823750
1"
15
17
06
#825000
0"
05
#826250
1"
15
16
#827500
0"
05
#828750
1"
15
18
07
06
#830000
0"
05
#831250
1"
15
16
#832500
0"
05
#833750
1"
15
17
06
#835000
0"
05
#836250
1"
15
16
1)!
#837500
0"
05
#838750
1"
15
1:
09
08
07
06
0)!
#840000
0"
05
#841250
1"
15
16
#842500
0"
05
#843750
1"
15
17
06
#845000
0"
05
#846250
1"
15
16
#847500
0"
05
#848750
1"
15
18
07
06
#850000
0"
05
#851250
1"
15
16
#852500
0"
05
#853750
1"
15
17
06
#855000
0"
05
#856250
1"
15
16
#857500
0"
05
#858750
1"
15
19
08
07
06
#860000
0"
05
#861250
1"
15
16
#862500
0"
05
#863750
1"
15
17
06
#865000
0"
05
#866250
1"
15
16
#867500
0"
05
#868750
1"
15
18
07
06
#870000
0"
05
#871250
1"
15
16
#872500
0"
05
#873750
1"
15
17
06
#875000
0"
05
#876250
1"
15
16
1)!
#877500
0"
05
#878750
1"
15
1H
0:
09
08
07
06
0)!
1;
1o
#880000
0"
05
#881250
1"
15
16
#882500
0"
05
#883750
1"
15
17
06
#885000
0"
05
#886250
1"
15
16
#887500
0"
05
#888750
1"
15
18
07
06
#890000
0"
05
#891250
1"
15
16
#892500
0"
05
#893750
1"
15
17
06
#895000
0"
05
#896250
1"
15
16
#897500
0"
05
#898750
1"
15
19
08
07
06
#900000
0"
05
#901250
1"
15
16
#902500
0"
05
#903750
1"
15
17
06
#905000
0"
05
#906250
1"
15
16
#907500
0"
05
#908750
1"
15
18
07
06
#910000
0"
05
#911250
1"
15
16
#912500
0"
05
#913750
1"
15
17
06
#915000
0"
05
#916250
1"
15
16
1)!
#917500
0"
05
#918750
1"
15
1:
09
08
07
06
1&!
0)!
0&!
#920000
0"
05
#921250
1"
15
16
#922500
0"
05
#923750
1"
15
17
06
#925000
0"
05
#926250
1"
15
16
#927500
0"
05
#928750
1"
15
18
07
06
#930000
0"
05
#931250
1"
15
16
#932500
0"
05
#933750
1"
15
17
06
#935000
0"
05
#936250
1"
15
16
#937500
0"
05
#938750
1"
15
19
08
07
06
#940000
0"
05
#941250
1"
15
16
#942500
0"
05
#943750
1"
15
17
06
#945000
0"
05
#946250
1"
15
16
#947500
0"
05
#948750
1"
15
18
07
06
#950000
0"
05
#951250
1"
15
16
#952500
0"
05
#953750
1"
15
17
06
#955000
0"
05
#956250
1"
15
16
1)!
1&!
#957500
0"
05
#958750
1"
15
1J
0I
0H
0:
09
08
07
06
0&!
0)!
1=
0<
0;
1n
1h
1_
1C
0o
0`
0p
0b
#960000
0"
05
#961250
1"
15
16
#962500
0"
05
#963750
1"
15
17
06
#965000
0"
05
#966250
1"
15
16
#967500
0"
05
#968750
1"
15
18
07
06
#970000
0"
05
#971250
1"
15
16
#972500
0"
05
#973750
1"
15
17
06
#975000
0"
05
#976250
1"
15
16
#977500
0"
05
#978750
1"
15
19
08
07
06
#980000
0"
05
#981250
1"
15
16
#982500
0"
05
#983750
1"
15
17
06
#985000
0"
05
#986250
1"
15
16
#987500
0"
05
#988750
1"
15
18
07
06
#990000
0"
05
#991250
1"
15
16
#992500
0"
05
#993750
1"
15
17
06
#995000
0"
05
#996250
1"
15
16
1)!
#997500
0"
05
#998750
1"
15
1:
09
08
07
06
0)!
#1000000
0"
05
#1001250
1"
15
16
#1002500
0"
05
#1003750
1"
15
17
06
#1005000
0"
05
#1006250
1"
15
16
#1007500
0"
05
#1008750
1"
15
18
07
06
#1010000
0"
05
#1011250
1"
15
16
#1012500
0"
05
#1013750
1"
15
17
06
#1015000
0"
05
#1016250
1"
15
16
#1017500
0"
05
#1018750
1"
15
19
08
07
06
#1020000
0"
05
#1021250
1"
15
16
#1022500
0"
05
#1023750
1"
15
17
06
#1025000
0"
05
#1026250
1"
15
16
#1027500
0"
05
#1028750
1"
15
18
07
06
#1030000
0"
05
#1031250
1"
15
16
#1032500
0"
05
#1033750
1"
15
17
06
#1035000
0"
05
#1036250
1"
15
16
1)!
#1037500
0"
05
#1038750
1"
15
1H
0:
09
08
07
06
0)!
1;
1p
#1040000
0"
05
#1041250
1"
15
16
#1042500
0"
05
#1043750
1"
15
17
06
#1045000
0"
05
#1046250
1"
15
16
#1047500
0"
05
#1048750
1"
15
18
07
06
#1050000
0"
05
#1051250
1"
15
16
#1052500
0"
05
#1053750
1"
15
17
06
#1055000
0"
05
#1056250
1"
15
16
#1057500
0"
05
#1058750
1"
15
19
08
07
06
#1060000
0"
05
#1061250
1"
15
16
#1062500
0"
05
#1063750
1"
15
17
06
#1065000
0"
05
#1066250
1"
15
16
#1067500
0"
05
#1068750
1"
15
18
07
06
#1070000
0"
05
#1071250
1"
15
16
#1072500
0"
05
#1073750
1"
15
17
06
#1075000
0"
05
#1076250
1"
15
16
1)!
#1077500
0"
05
#1078750
1"
15
1:
09
08
07
06
0)!
#1080000
0"
05
#1081250
1"
15
16
#1082500
0"
05
#1083750
1"
15
17
06
#1085000
0"
05
#1086250
1"
15
16
#1087500
0"
05
#1088750
1"
15
18
07
06
#1090000
0"
05
#1091250
1"
15
16
#1092500
0"
05
#1093750
1"
15
17
06
#1095000
0"
05
#1096250
1"
15
16
#1097500
0"
05
#1098750
1"
15
19
08
07
06
#1100000
0"
05
#1101250
1"
15
16
#1102500
0"
05
#1103750
1"
15
17
06
#1105000
0"
05
#1106250
1"
15
16
#1107500
0"
05
#1108750
1"
15
18
07
06
#1110000
0"
05
#1111250
1"
15
16
#1112500
0"
05
#1113750
1"
15
17
06
#1115000
0"
05
#1116250
1"
15
16
1)!
#1117500
0"
05
#1118750
1"
15
1I
0H
0:
09
08
07
06
0)!
1<
0;
0k
1j
1`
0C
0p
1p
#1120000
0"
05
#1121250
1"
15
16
#1122500
0"
05
#1123750
1"
15
17
06
#1125000
0"
05
#1126250
1"
15
16
#1127500
0"
05
#1128750
1"
15
18
07
06
#1130000
0"
05
#1131250
1"
15
16
#1132500
0"
05
#1133750
1"
15
17
06
#1135000
0"
05
#1136250
1"
15
16
#1137500
0"
05
#1138750
1"
15
19
08
07
06
#1140000
0"
05
#1141250
1"
15
16
#1142500
0"
05
#1143750
1"
15
17
06
#1145000
0"
05
#1146250
1"
15
16
#1147500
0"
05
#1148750
1"
15
18
07
06
#1150000
0"
05
#1151250
1"
15
16
#1152500
0"
05
#1153750
1"
15
17
06
#1155000
0"
05
#1156250
1"
15
16
1)!
#1157500
0"
05
#1158750
1"
15
1:
09
08
07
06
0)!
#1160000
0"
05
#1161250
1"
15
16
#1162500
0"
05
#1163750
1"
15
17
06
#1165000
0"
05
#1166250
1"
15
16
#1167500
0"
05
#1168750
1"
15
18
07
06
#1170000
0"
05
#1171250
1"
15
16
#1172500
0"
05
#1173750
1"
15
17
06
#1175000
0"
05
#1176250
1"
15
16
#1177500
0"
05
#1178750
1"
15
19
08
07
06
#1180000
0"
05
#1181250
1"
15
16
#1182500
0"
05
#1183750
1"
15
17
06
#1185000
0"
05
#1186250
1"
15
16
#1187500
0"
05
#1188750
1"
15
18
07
06
#1190000
0"
05
#1191250
1"
15
16
#1192500
0"
05
#1193750
1"
15
17
06
#1195000
0"
05
#1196250
1"
15
16
1)!
#1197500
0"
05
#1198750
1"
15
1H
0:
09
08
07
06
0)!
1;
1o
#1200000
0"
05
#1201250
1"
15
16
#1202500
0"
05
#1203750
1"
15
17
06
#1205000
0"
05
#1206250
1"
15
16
#1207500
0"
05
#1208750
1"
15
18
07
06
#1210000
0"
05
#1211250
1"
15
16
#1212500
0"
05
#1213750
1"
15
17
06
#1215000
0"
05
#1216250
1"
15
16
#1217500
0"
05
#1218750
1"
15
19
08
07
06
#1220000
0"
05
#1221250
1"
15
16
#1222500
0"
05
#1223750
1"
15
17
06
#1225000
0"
05
#1226250
1"
15
16
#1227500
0"
05
#1228750
1"
15
18
07
06
#1230000
0"
05
#1231250
1"
15
16
#1232500
0"
05
#1233750
1"
15
17
06
#1235000
0"
05
#1236250
1"
15
16
1)!
#1237500
0"
05
#1238750
1"
15
1:
09
08
07
06
1&!
0)!
0&!
#1240000
0"
05
#1241250
1"
15
16
#1242500
0"
05
#1243750
1"
15
17
06
#1245000
0"
05
#1246250
1"
15
16
#1247500
0"
05
#1248750
1"
15
18
07
06
#1250000
0"
05
#1251250
1"
15
16
#1252500
0"
05
#1253750
1"
15
17
06
#1255000
0"
05
#1256250
1"
15
16
#1257500
0"
05
#1258750
1"
15
19
08
07
06
#1260000
0"
05
#1261250
1"
15
16
#1262500
0"
05
#1263750
1"
15
17
06
#1265000
0"
05
#1266250
1"
15
16
#1267500
0"
05
#1268750
1"
15
18
07
06
#1270000
0"
05
#1271250
1"
15
16
#1272500
0"
05
#1273750
1"
15
17
06
#1275000
0"
05
#1276250
1"
15
16
1)!
1&!
#1277500
0"
05
